Product code,Bureau of Meteorology station number,Year,Month,Day,Rainfall amount (millimetres),Period over which rainfall was measured (days),Quality
IDCJAC0009,066062,2018,01,01,0.6,1,N
IDCJAC0009,066062,2018,01,02,0.0,1,N
IDCJAC0009,066062,2018,01,03,1.4,1,N
IDCJAC0009,066062,2018,01,04,0.6,1,N
IDCJAC0009,066062,2018,01,05,0.8,1,N
IDCJAC0009,066062,2018,01,06,0.0,1,N
IDCJAC0009,066062,2018,01,07,0.0,1,N
IDCJAC0009,066062,2018,01,08,2.4,1,N
IDCJAC0009,066062,2018,01,09,18.6,1,N
IDCJAC0009,066062,2018,01,10,5.8,1,N
IDCJAC0009,066062,2018,01,11,0.0,1,N
IDCJAC0009,066062,2018,01,12,2.8,1,N
IDCJAC0009,066062,2018,01,13,0.2,1,N
IDCJAC0009,066062,2018,01,14,1.8,1,N
IDCJAC0009,066062,2018,01,15,0.2,1,N
IDCJAC0009,066062,2018,01,16,0.0,1,N
IDCJAC0009,066062,2018,01,17,0.0,1,N
IDCJAC0009,066062,2018,01,18,0.0,1,N
IDCJAC0009,066062,2018,01,19,0.0,1,N
IDCJAC0009,066062,2018,01,20,0.0,1,N
IDCJAC0009,066062,2018,01,21,0.0,1,N
IDCJAC0009,066062,2018,01,22,0.0,1,N
IDCJAC0009,066062,2018,01,23,0.0,1,N
IDCJAC0009,066062,2018,01,24,0.4,1,N
IDCJAC0009,066062,2018,01,25,0.0,1,N
IDCJAC0009,066062,2018,01,26,0.0,1,N
IDCJAC0009,066062,2018,01,27,0.0,1,N
IDCJAC0009,066062,2018,01,28,0.0,1,N
IDCJAC0009,066062,2018,01,29,0.0,1,N
IDCJAC0009,066062,2018,01,30,0.0,1,N
IDCJAC0009,066062,2018,01,31,2.2,1,N
IDCJAC0009,066062,2018,02,01,0.0,1,N
IDCJAC0009,066062,2018,02,02,2.0,1,N
IDCJAC0009,066062,2018,02,03,27.2,1,N
IDCJAC0009,066062,2018,02,04,1.8,1,N
IDCJAC0009,066062,2018,02,05,0.0,1,N
IDCJAC0009,066062,2018,02,06,0.0,1,N
IDCJAC0009,066062,2018,02,07,0.0,1,N
IDCJAC0009,066062,2018,02,08,0.0,1,N
IDCJAC0009,066062,2018,02,09,0.0,1,N
IDCJAC0009,066062,2018,02,10,4.6,1,N
IDCJAC0009,066062,2018,02,11,2.4,1,N
IDCJAC0009,066062,2018,02,12,0.0,1,N
IDCJAC0009,066062,2018,02,13,0.0,1,N
IDCJAC0009,066062,2018,02,14,0.0,1,N
IDCJAC0009,066062,2018,02,15,0.0,1,N
IDCJAC0009,066062,2018,02,16,0.0,1,N
IDCJAC0009,066062,2018,02,17,0.0,1,N
IDCJAC0009,066062,2018,02,18,0.0,1,N
IDCJAC0009,066062,2018,02,19,0.0,1,N
IDCJAC0009,066062,2018,02,20,1.8,1,N
IDCJAC0009,066062,2018,02,21,0.0,1,N
IDCJAC0009,066062,2018,02,22,0.0,1,N
IDCJAC0009,066062,2018,02,23,0.0,1,N
IDCJAC0009,066062,2018,02,24,0.0,1,N
IDCJAC0009,066062,2018,02,25,0.0,1,N
IDCJAC0009,066062,2018,02,26,69.4,1,N
IDCJAC0009,066062,2018,02,27,3.4,1,N
IDCJAC0009,066062,2018,02,28,0.2,1,N
IDCJAC0009,066062,2018,03,01,0.0,1,N
IDCJAC0009,066062,2018,03,02,0.0,1,N
IDCJAC0009,066062,2018,03,03,0.0,1,N
IDCJAC0009,066062,2018,03,04,0.0,1,N
IDCJAC0009,066062,2018,03,05,0.0,1,N
IDCJAC0009,066062,2018,03,06,5.6,1,N
IDCJAC0009,066062,2018,03,07,1.8,1,N
IDCJAC0009,066062,2018,03,08,0.0,1,N
IDCJAC0009,066062,2018,03,09,0.0,1,N
IDCJAC0009,066062,2018,03,10,0.2,1,N
IDCJAC0009,066062,2018,03,11,0.0,1,N
IDCJAC0009,066062,2018,03,12,0.0,1,N
IDCJAC0009,066062,2018,03,13,53.0,1,N
IDCJAC0009,066062,2018,03,14,16.6,1,N
IDCJAC0009,066062,2018,03,15,0.2,1,N
IDCJAC0009,066062,2018,03,16,0.0,1,N
IDCJAC0009,066062,2018,03,17,0.0,1,N
IDCJAC0009,066062,2018,03,18,0.0,1,N
IDCJAC0009,066062,2018,03,19,0.0,1,N
IDCJAC0009,066062,2018,03,20,0.0,1,N
IDCJAC0009,066062,2018,03,21,12.4,1,N
IDCJAC0009,066062,2018,03,22,6.4,1,N
IDCJAC0009,066062,2018,03,23,5.4,1,N
IDCJAC0009,066062,2018,03,24,0.0,1,N
IDCJAC0009,066062,2018,03,25,1.0,1,N
IDCJAC0009,066062,2018,03,26,14.2,1,N
IDCJAC0009,066062,2018,03,27,2.0,1,N
IDCJAC0009,066062,2018,03,28,0.0,1,N
IDCJAC0009,066062,2018,03,29,0.0,1,N
IDCJAC0009,066062,2018,03,30,0.0,1,N
IDCJAC0009,066062,2018,03,31,0.0,1,N
IDCJAC0009,066062,2018,04,01,0.0,1,N
IDCJAC0009,066062,2018,04,02,0.0,1,N
IDCJAC0009,066062,2018,04,03,0.0,1,N
IDCJAC0009,066062,2018,04,04,0.0,1,N
IDCJAC0009,066062,2018,04,05,0.0,1,N
IDCJAC0009,066062,2018,04,06,0.0,1,N
IDCJAC0009,066062,2018,04,07,0.0,1,N
IDCJAC0009,066062,2018,04,08,0.0,1,N
IDCJAC0009,066062,2018,04,09,0.0,1,N
IDCJAC0009,066062,2018,04,10,0.0,1,N
IDCJAC0009,066062,2018,04,11,0.0,1,N
IDCJAC0009,066062,2018,04,12,0.0,1,N
IDCJAC0009,066062,2018,04,13,0.0,1,N
IDCJAC0009,066062,2018,04,14,0.0,1,N
IDCJAC0009,066062,2018,04,15,0.0,1,N
IDCJAC0009,066062,2018,04,16,0.0,1,N
IDCJAC0009,066062,2018,04,17,0.0,1,N
IDCJAC0009,066062,2018,04,18,0.0,1,N
IDCJAC0009,066062,2018,04,19,0.0,1,N
IDCJAC0009,066062,2018,04,20,0.0,1,N
IDCJAC0009,066062,2018,04,21,0.0,1,N
IDCJAC0009,066062,2018,04,22,0.0,1,N
IDCJAC0009,066062,2018,04,23,0.0,1,N
IDCJAC0009,066062,2018,04,24,0.0,1,N
IDCJAC0009,066062,2018,04,25,0.0,1,N
IDCJAC0009,066062,2018,04,26,0.2,1,N
IDCJAC0009,066062,2018,04,27,1.4,1,N
IDCJAC0009,066062,2018,04,28,9.2,1,N
IDCJAC0009,066062,2018,04,29,2.6,1,N
IDCJAC0009,066062,2018,04,30,9.8,1,N
IDCJAC0009,066062,2018,05,01,0.2,1,N
IDCJAC0009,066062,2018,05,02,0.0,1,N
IDCJAC0009,066062,2018,05,03,0.0,1,N
IDCJAC0009,066062,2018,05,04,0.0,1,N
IDCJAC0009,066062,2018,05,05,0.0,1,N
IDCJAC0009,066062,2018,05,06,0.0,1,N
IDCJAC0009,066062,2018,05,07,0.0,1,N
IDCJAC0009,066062,2018,05,08,0.0,1,N
IDCJAC0009,066062,2018,05,09,0.0,1,N
IDCJAC0009,066062,2018,05,10,0.0,1,N
IDCJAC0009,066062,2018,05,11,0.0,1,N
IDCJAC0009,066062,2018,05,12,3.6,1,N
IDCJAC0009,066062,2018,05,13,0.8,1,N
IDCJAC0009,066062,2018,05,14,13.4,1,N
IDCJAC0009,066062,2018,05,15,0.2,1,N
IDCJAC0009,066062,2018,05,16,0.0,1,N
IDCJAC0009,066062,2018,05,17,0.0,1,N
IDCJAC0009,066062,2018,05,18,0.0,1,N
IDCJAC0009,066062,2018,05,19,0.0,1,N
IDCJAC0009,066062,2018,05,20,0.0,1,N
IDCJAC0009,066062,2018,05,21,0.0,1,N
IDCJAC0009,066062,2018,05,22,0.0,1,N
IDCJAC0009,066062,2018,05,23,0.0,1,N
IDCJAC0009,066062,2018,05,24,0.0,1,N
IDCJAC0009,066062,2018,05,25,0.0,1,N
IDCJAC0009,066062,2018,05,26,0.0,1,N
IDCJAC0009,066062,2018,05,27,0.0,1,N
IDCJAC0009,066062,2018,05,28,0.0,1,N
IDCJAC0009,066062,2018,05,29,0.0,1,N
IDCJAC0009,066062,2018,05,30,3.4,1,N
IDCJAC0009,066062,2018,05,31,1.6,1,N
IDCJAC0009,066062,2018,06,01,0.0,1,N
IDCJAC0009,066062,2018,06,02,0.4,1,N
IDCJAC0009,066062,2018,06,03,0.4,1,N
IDCJAC0009,066062,2018,06,04,3.6,1,N
IDCJAC0009,066062,2018,06,05,2.8,1,N
IDCJAC0009,066062,2018,06,06,32.6,1,N
IDCJAC0009,066062,2018,06,07,16.6,1,N
IDCJAC0009,066062,2018,06,08,0.0,1,N
IDCJAC0009,066062,2018,06,09,6.8,1,N
IDCJAC0009,066062,2018,06,10,4.0,1,N
IDCJAC0009,066062,2018,06,11,11.4,1,N
IDCJAC0009,066062,2018,06,12,0.0,1,N
IDCJAC0009,066062,2018,06,13,0.0,1,N
IDCJAC0009,066062,2018,06,14,0.0,1,N
IDCJAC0009,066062,2018,06,15,0.2,1,N
IDCJAC0009,066062,2018,06,16,0.0,1,N
IDCJAC0009,066062,2018,06,17,0.0,1,N
IDCJAC0009,066062,2018,06,18,0.2,1,N
IDCJAC0009,066062,2018,06,19,15.0,1,N
IDCJAC0009,066062,2018,06,20,43.0,1,N
IDCJAC0009,066062,2018,06,21,6.0,1,N
IDCJAC0009,066062,2018,06,22,0.2,1,N
IDCJAC0009,066062,2018,06,23,0.2,1,N
IDCJAC0009,066062,2018,06,24,,,
IDCJAC0009,066062,2018,06,25,0.0,1,N
IDCJAC0009,066062,2018,06,26,0.0,1,N
IDCJAC0009,066062,2018,06,27,1.0,1,N
IDCJAC0009,066062,2018,06,28,22.4,1,N
IDCJAC0009,066062,2018,06,29,8.8,1,N
IDCJAC0009,066062,2018,06,30,0.0,1,N
IDCJAC0009,066062,2018,07,01,0.0,1,N
IDCJAC0009,066062,2018,07,02,0.0,1,N
IDCJAC0009,066062,2018,07,03,9.8,1,N
IDCJAC0009,066062,2018,07,04,0.0,1,N
IDCJAC0009,066062,2018,07,05,0.0,1,N
IDCJAC0009,066062,2018,07,06,0.0,1,N
IDCJAC0009,066062,2018,07,07,0.0,1,N
IDCJAC0009,066062,2018,07,08,0.0,1,N
IDCJAC0009,066062,2018,07,09,0.0,1,N
IDCJAC0009,066062,2018,07,10,0.0,1,N
IDCJAC0009,066062,2018,07,11,0.0,1,N
IDCJAC0009,066062,2018,07,12,0.0,1,N
IDCJAC0009,066062,2018,07,13,0.0,1,N
IDCJAC0009,066062,2018,07,14,0.0,1,N
IDCJAC0009,066062,2018,07,15,0.0,1,N
IDCJAC0009,066062,2018,07,16,0.0,1,N
IDCJAC0009,066062,2018,07,17,0.0,1,N
IDCJAC0009,066062,2018,07,18,0.0,1,N
IDCJAC0009,066062,2018,07,19,0.0,1,N
IDCJAC0009,066062,2018,07,20,0.0,1,N
IDCJAC0009,066062,2018,07,21,0.0,1,N
IDCJAC0009,066062,2018,07,22,0.0,1,N
IDCJAC0009,066062,2018,07,23,0.0,1,N
IDCJAC0009,066062,2018,07,24,0.0,1,N
IDCJAC0009,066062,2018,07,25,0.0,1,N
IDCJAC0009,066062,2018,07,26,0.0,1,N
IDCJAC0009,066062,2018,07,27,0.0,1,N
IDCJAC0009,066062,2018,07,28,0.0,1,N
IDCJAC0009,066062,2018,07,29,1.4,1,N
IDCJAC0009,066062,2018,07,30,0.0,1,N
IDCJAC0009,066062,2018,07,31,0.0,1,N
IDCJAC0009,066062,2018,08,01,0.0,1,N
IDCJAC0009,066062,2018,08,02,0.0,1,N
IDCJAC0009,066062,2018,08,03,0.0,1,N
IDCJAC0009,066062,2018,08,04,0.0,1,N
IDCJAC0009,066062,2018,08,05,0.0,1,N
IDCJAC0009,066062,2018,08,06,0.0,1,N
IDCJAC0009,066062,2018,08,07,1.4,1,N
IDCJAC0009,066062,2018,08,08,0.0,1,N
IDCJAC0009,066062,2018,08,09,0.0,1,N
IDCJAC0009,066062,2018,08,10,0.0,1,N
IDCJAC0009,066062,2018,08,11,0.0,1,N
IDCJAC0009,066062,2018,08,12,0.0,1,N
IDCJAC0009,066062,2018,08,13,0.0,1,N
IDCJAC0009,066062,2018,08,14,0.0,1,N
IDCJAC0009,066062,2018,08,15,0.0,1,N
IDCJAC0009,066062,2018,08,16,0.0,1,N
IDCJAC0009,066062,2018,08,17,0.0,1,N
IDCJAC0009,066062,2018,08,18,0.0,1,N
IDCJAC0009,066062,2018,08,19,0.0,1,N
IDCJAC0009,066062,2018,08,20,0.0,1,N
IDCJAC0009,066062,2018,08,21,0.0,1,N
IDCJAC0009,066062,2018,08,22,0.0,1,N
IDCJAC0009,066062,2018,08,23,0.0,1,N
IDCJAC0009,066062,2018,08,24,2.8,1,N
IDCJAC0009,066062,2018,08,25,1.8,1,N
IDCJAC0009,066062,2018,08,26,0.0,1,N
IDCJAC0009,066062,2018,08,27,1.8,1,N
IDCJAC0009,066062,2018,08,28,0.0,1,N
IDCJAC0009,066062,2018,08,29,0.0,1,N
IDCJAC0009,066062,2018,08,30,0.0,1,N
IDCJAC0009,066062,2018,08,31,0.0,1,N
IDCJAC0009,066062,2018,09,01,2.2,1,N
IDCJAC0009,066062,2018,09,02,0.2,1,N
IDCJAC0009,066062,2018,09,03,0.2,1,N
IDCJAC0009,066062,2018,09,04,11.2,1,N
IDCJAC0009,066062,2018,09,05,0.0,1,N
IDCJAC0009,066062,2018,09,06,0.8,1,N
IDCJAC0009,066062,2018,09,07,4.0,1,N
IDCJAC0009,066062,2018,09,08,20.0,1,N
IDCJAC0009,066062,2018,09,09,0.0,1,N
IDCJAC0009,066062,2018,09,10,0.2,1,N
IDCJAC0009,066062,2018,09,11,0.0,1,N
IDCJAC0009,066062,2018,09,12,0.0,1,N
IDCJAC0009,066062,2018,09,13,0.0,1,N
IDCJAC0009,066062,2018,09,14,0.0,1,N
IDCJAC0009,066062,2018,09,15,0.0,1,N
IDCJAC0009,066062,2018,09,16,0.0,1,N
IDCJAC0009,066062,2018,09,17,0.0,1,N
IDCJAC0009,066062,2018,09,18,0.0,1,N
IDCJAC0009,066062,2018,09,19,0.0,1,N
IDCJAC0009,066062,2018,09,20,5.6,1,N
IDCJAC0009,066062,2018,09,21,0.0,1,N
IDCJAC0009,066062,2018,09,22,0.0,1,N
IDCJAC0009,066062,2018,09,23,0.0,1,N
IDCJAC0009,066062,2018,09,24,0.4,1,N
IDCJAC0009,066062,2018,09,25,0.8,1,N
IDCJAC0009,066062,2018,09,26,3.6,1,N
IDCJAC0009,066062,2018,09,27,1.0,1,N
IDCJAC0009,066062,2018,09,28,0.0,1,N
IDCJAC0009,066062,2018,09,29,0.8,1,N
IDCJAC0009,066062,2018,09,30,0.0,1,N
IDCJAC0009,066062,2018,10,01,0.0,1,N
IDCJAC0009,066062,2018,10,02,0.0,1,N
IDCJAC0009,066062,2018,10,03,0.0,1,N
IDCJAC0009,066062,2018,10,04,2.2,1,N
IDCJAC0009,066062,2018,10,05,44.4,1,N
IDCJAC0009,066062,2018,10,06,29.4,1,N
IDCJAC0009,066062,2018,10,07,2.2,1,N
IDCJAC0009,066062,2018,10,08,13.8,1,N
IDCJAC0009,066062,2018,10,09,2.2,1,N
IDCJAC0009,066062,2018,10,10,0.0,1,N
IDCJAC0009,066062,2018,10,11,13.4,1,N
IDCJAC0009,066062,2018,10,12,7.6,1,N
IDCJAC0009,066062,2018,10,13,4.8,1,N
IDCJAC0009,066062,2018,10,14,12.6,1,N
IDCJAC0009,066062,2018,10,15,6.8,1,N
IDCJAC0009,066062,2018,10,16,4.6,1,N
IDCJAC0009,066062,2018,10,17,0.4,1,N
IDCJAC0009,066062,2018,10,18,5.2,1,N
IDCJAC0009,066062,2018,10,19,2.2,1,N
IDCJAC0009,066062,2018,10,20,0.0,1,N
IDCJAC0009,066062,2018,10,21,12.6,1,N
IDCJAC0009,066062,2018,10,22,0.0,1,N
IDCJAC0009,066062,2018,10,23,0.0,1,N
IDCJAC0009,066062,2018,10,24,0.0,1,N
IDCJAC0009,066062,2018,10,25,0.0,1,N
IDCJAC0009,066062,2018,10,26,0.0,1,N
IDCJAC0009,066062,2018,10,27,0.0,1,N
IDCJAC0009,066062,2018,10,28,3.2,1,N
IDCJAC0009,066062,2018,10,29,0.0,1,N
IDCJAC0009,066062,2018,10,30,0.0,1,N
IDCJAC0009,066062,2018,10,31,0.0,1,N
IDCJAC0009,066062,2018,11,01,0.0,1,N
IDCJAC0009,066062,2018,11,02,0.0,1,N
IDCJAC0009,066062,2018,11,03,5.0,1,N
IDCJAC0009,066062,2018,11,04,0.0,1,N
IDCJAC0009,066062,2018,11,05,0.0,1,N
IDCJAC0009,066062,2018,11,06,0.0,1,N
IDCJAC0009,066062,2018,11,07,0.2,1,N
IDCJAC0009,066062,2018,11,08,21.8,1,N
IDCJAC0009,066062,2018,11,09,0.0,1,N
IDCJAC0009,066062,2018,11,10,0.0,1,N
IDCJAC0009,066062,2018,11,11,0.0,1,N
IDCJAC0009,066062,2018,11,12,0.0,1,N
IDCJAC0009,066062,2018,11,13,0.0,1,N
IDCJAC0009,066062,2018,11,14,0.0,1,N
IDCJAC0009,066062,2018,11,15,0.2,1,N
IDCJAC0009,066062,2018,11,16,2.2,1,N
IDCJAC0009,066062,2018,11,17,0.0,1,N
IDCJAC0009,066062,2018,11,18,2.6,1,N
IDCJAC0009,066062,2018,11,19,0.0,1,N
IDCJAC0009,066062,2018,11,20,0.0,1,N
IDCJAC0009,066062,2018,11,21,0.0,1,N
IDCJAC0009,066062,2018,11,22,8.0,1,N
IDCJAC0009,066062,2018,11,23,0.0,1,N
IDCJAC0009,066062,2018,11,24,0.2,1,N
IDCJAC0009,066062,2018,11,25,0.0,1,N
IDCJAC0009,066062,2018,11,26,0.0,1,N
IDCJAC0009,066062,2018,11,27,0.0,1,N
IDCJAC0009,066062,2018,11,28,105.6,1,N
IDCJAC0009,066062,2018,11,29,30.2,1,N
IDCJAC0009,066062,2018,11,30,0.2,1,N
IDCJAC0009,066062,2018,12,01,0.0,1,N
IDCJAC0009,066062,2018,12,02,0.0,1,N
IDCJAC0009,066062,2018,12,03,0.0,1,N
IDCJAC0009,066062,2018,12,04,0.0,1,N
IDCJAC0009,066062,2018,12,05,0.0,1,N
IDCJAC0009,066062,2018,12,06,1.2,1,N
IDCJAC0009,066062,2018,12,07,0.0,1,N
IDCJAC0009,066062,2018,12,08,0.0,1,N
IDCJAC0009,066062,2018,12,09,0.0,1,N
IDCJAC0009,066062,2018,12,10,0.0,1,N
IDCJAC0009,066062,2018,12,11,0.0,1,N
IDCJAC0009,066062,2018,12,12,0.0,1,N
IDCJAC0009,066062,2018,12,13,0.6,1,N
IDCJAC0009,066062,2018,12,14,17.2,1,N
IDCJAC0009,066062,2018,12,15,14.2,1,N
IDCJAC0009,066062,2018,12,16,6.6,1,N
IDCJAC0009,066062,2018,12,17,0.2,1,N
IDCJAC0009,066062,2018,12,18,0.0,1,N
IDCJAC0009,066062,2018,12,19,0.2,1,N
IDCJAC0009,066062,2018,12,20,13.8,1,N
IDCJAC0009,066062,2018,12,21,28.4,1,N
IDCJAC0009,066062,2018,12,22,4.6,1,N
IDCJAC0009,066062,2018,12,23,7.8,1,N
IDCJAC0009,066062,2018,12,24,0.2,1,N
IDCJAC0009,066062,2018,12,25,0.0,1,N
IDCJAC0009,066062,2018,12,26,0.0,1,N
IDCJAC0009,066062,2018,12,27,0.0,1,N
IDCJAC0009,066062,2018,12,28,0.0,1,N
IDCJAC0009,066062,2018,12,29,0.0,1,N
IDCJAC0009,066062,2018,12,30,0.0,1,N
IDCJAC0009,066062,2018,12,31,0.0,1,N